{
    "user": {
        "id": "2343",
        "first_name": "Sam"
    },
    "account": {
        "id": "34324",
        "name": "Sub account"
    },
    "device": {
        "a.attribute": "Something"
    }
}
